<svg width="24" height="25" viewBox="0 0 24 25" fill="none" xmlns="http://www.w3.org/2000/svg">
<g clip-path="url(#clip)">
<path d="M12 24.5C18.6274 24.5 24 19.1274 24 12.5C24 5.87258 18.6274 0.5 12 0.5C5.37258 0.5 0 5.87258 0 12.5C0 19.1274 5.37258 24.5 12 24.5Z" fill="#338AF3"/>
<path d="M18.7825 12.6305H5.21729C5.21729 13.567 6.03296 14.3261 6.96938 14.3261H6.91294C6.91294 15.2627 7.67208 16.0218 8.6086 16.0218C8.6086 16.9583 9.36774 17.7175 10.3043 17.7175H13.6956C14.6321 17.7175 15.3912 16.9583 15.3912 16.0218C16.3277 16.0218 17.0869 15.2627 17.0869 14.3261H17.0304C17.9668 14.3261 18.7825 13.567 18.7825 12.6305Z" fill="#FFDA44"/>
<path d="M16.6958 10.4131C16.6958 13.0064 14.5934 15.1087 12.0001 15.1087C9.40674 15.1087 7.30444 13.0064 7.30444 10.4131" fill="#338AF3"/>
<path d="M15.5866 10.413L14.1211 11.1024L14.9015 12.5218L13.3101 12.2173L13.1084 13.8249L12 12.6425L10.8915 13.8249L10.6899 12.2173L9.09845 12.5217L9.87883 11.1023L8.41333 10.413L9.87888 9.72365L9.09845 8.30432L10.6898 8.60872L10.8915 7.0011L12 8.18352L13.1085 7.0011L13.3101 8.60872L14.9015 8.30432L14.1211 9.72369L15.5866 10.413Z" fill="#FFDA44"/>
</g>
<defs>
<clipPath id="clip">
<rect width="24" height="24" fill="white" transform="translate(0 0.5)"/>
</clipPath>
</defs>
</svg>
